…
Modify the Outcome data with str_replace()

As you can see here, 8 factors possibly affect the diagnosis of diabetes. Since the outcome is shown as 1 and 0, I will change this to Positive and Negative for easier visualization.

diabetes$Outcome <- str_replace(diabetes$Outcome,"1","Positive")
diabetes$Outcome <- str_replace(diabetes$Outcome, "0","Negative")
diabetes

## # A tibble: 768 x 9
##    Pregnancies Glucose BloodPressure SkinThickness Insulin   BMI
##          <dbl>   <dbl>         <dbl>         <dbl>   <dbl> <dbl>
##  1           6     148            72            35       0  33.6
##  2           1      85            66            29       0  26.6
##  3           8     183            64             0       0  23.3
##  4           1      89            66            23      94  28.1
##  5           0     137            40            35     168  43.1
##  6           5     116            74             0       0  25.6
##  7           3      78            50            32      88  31  
##  8          10     115             0             0       0  35.3
##  9           2     197            70            45     543  30.5
## 10           8     125            96             0       0   0  
## # … with 758 more rows, and 3 more variables: DiabetesPedigreeFunction <dbl>,
## #   Age <dbl>, Outcome <chr>
…
The first diverging point of the classification tree model is the most influencing variable of the model. The first division occurs based on the glucose level of 144. Even though the diagnosis of glucose varies based on the fasting levels, post-meal, etc., 144 is above the normal range. Also, the model demonstrates that the glucose level is more affecting the model than the BMI.

Test the Model with Testing set

diabetes_pred <- diabetes_fit %>% 
  predict(diabetes_test)

diabetes_test %>% select(Glucose,BMI,Outcome) %>% 
  mutate(Outcome_Pred = diabetes_pred$.pred_class)

## # A tibble: 153 x 4
##    Glucose   BMI Outcome  Outcome_Pred
##      <dbl> <dbl> <fct>    <fct>       
##  1     116  25.6 Negative Negative    
##  2     115  35.3 Negative Negative    
##  3     168  38   Positive Positive    
##  4     166  25.8 Positive Positive    
##  5     107  29.6 Positive Negative    
##  6     125  31.1 Positive Positive    
##  7      92  19.9 Negative Negative    
##  8      90  38.2 Positive Negative    
##  9     103  39.1 Positive Negative    
## 10     101  24.2 Negative Negative    
## # … with 143 more rows
…
